[
null,
{"id":1,"expanded":false,"name":"Friendship","order":2,"parentId":4,"scrollX":811,"scrollY":461.5},
{"id":2,"expanded":false,"name":"Elemental Pool","order":3,"parentId":4,"scrollX":832,"scrollY":640},
{"id":3,"expanded":false,"name":"BigMapDebug","order":4,"parentId":4,"scrollX":816,"scrollY":624},
{"id":4,"expanded":true,"name":"PLUGIN AUSWAHL","order":1,"parentId":0,"scrollX":832,"scrollY":640},
{"id":5,"expanded":false,"name":"Enemy Use Items","order":5,"parentId":4,"scrollX":459,"scrollY":323.5},
{"id":6,"expanded":false,"name":"ItemDurability","order":6,"parentId":4,"scrollX":694.8,"scrollY":429.59999999999997},
{"id":7,"expanded":false,"name":"DarkWorld","order":7,"parentId":4,"scrollX":694.8,"scrollY":440.4}
]